%YAML 1.1
%TAG !u! tag:unity3d.com,2011:
--- !u!221 &22100000
AnimatorOverrideController:
  m_ObjectHideFlags: 0
  m_PrefabParentObject: {fileID: 0}
  m_PrefabInternal: {fileID: 0}
  m_Name: Enemy2
  m_Controller: {fileID: 9100000, guid: 4a1aaf36c2ad1af40ac382d5a4989934, type: 2}
  m_Clips:
  - m_OriginalClip: {fileID: 7400000, guid: 92acfa2d1404086438c2ad03203f3d34, type: 2}
    m_OverrideClip: {fileID: 7400000, guid: 338dca32d043e2646bdeb98e818adfc8, type: 2}
  - m_OriginalClip: {fileID: 7400000, guid: 26f7c796713688d4d9171687065dc4dc, type: 2}
    m_OverrideClip: {fileID: 7400000, guid: 9f87c1d2d0989e6468ed61f98af871b3, type: 2}
